version 1
nodes
  0 "Body"  -1
  1 "Box001"   0
  2 "Box002"   0
  3 "Box003"   0
  4 "Box004"   0
  5 "Box005"   0
end
skeleton
time 0
  0 0.000000 0.000003 -17.000002 0.000000 -0.000000 0.000000
  1 0.000000 -0.000003 17.000002 0.000000 -0.000000 0.000000
  2 -59.000000 -0.000003 17.000002 -3.141593 -0.000000 0.000000
  3 59.000000 -0.000003 17.000002 -3.141593 -0.000000 0.000000
  4 -53.000000 -0.000003 -20.999998 -3.141593 -0.000000 0.000000
  5 53.000000 -0.000003 -20.999998 -3.141593 -0.000000 0.000000
end
triangles
Metal_Anodized.vtf
  1 -61.0000 -16.0000   0.0000   0.0000   0.0000  -1.0000   1.0000   0.0000
  1 -61.0000  16.0000   0.0000   0.0000   0.0000  -1.0000   1.0000   1.0000
  1  61.0000  16.0000   0.0000   0.0000   0.0000  -1.0000   0.0000   1.0000
Metal_Anodized.vtf
  1  61.0000  16.0000   0.0000   0.0000   0.0000  -1.0000   0.0000   1.0000
  1  61.0000 -16.0000   0.0000   0.0000   0.0000  -1.0000   0.0000   0.0000
  1 -61.0000 -16.0000   0.0000   0.0000   0.0000  -1.0000   1.0000   0.0000
Metal_Anodized.vtf
  1 -61.0000 -16.0000   4.0000   0.0000   0.0000   1.0000   0.0000   0.0000
  1  61.0000 -16.0000   4.0000   0.0000   0.0000   1.0000   1.0000   0.0000
  1  61.0000  16.0000   4.0000   0.0000   0.0000   1.0000   1.0000   1.0000
Metal_Anodized.vtf
  1  61.0000  16.0000   4.0000   0.0000   0.0000   1.0000   1.0000   1.0000
  1 -61.0000  16.0000   4.0000   0.0000   0.0000   1.0000   0.0000   1.0000
  1 -61.0000 -16.0000   4.0000   0.0000   0.0000   1.0000   0.0000   0.0000
Metal_Anodized.vtf
  1 -61.0000 -16.0000   0.0000   0.0000  -1.0000   0.0000   0.0000   0.0000
  1  61.0000 -16.0000   0.0000   0.0000  -1.0000   0.0000   1.0000   0.0000
  1  61.0000 -16.0000   4.0000   0.0000  -1.0000   0.0000   1.0000   1.0000
Metal_Anodized.vtf
  1  61.0000 -16.0000   4.0000   0.0000  -1.0000   0.0000   1.0000   1.0000
  1 -61.0000 -16.0000   4.0000   0.0000  -1.0000   0.0000   0.0000   1.0000
  1 -61.0000 -16.0000   0.0000   0.0000  -1.0000   0.0000   0.0000   0.0000
Metal_Anodized.vtf
  1  61.0000 -16.0000   0.0000   1.0000   0.0000   0.0000   0.0000   0.0000
  1  61.0000  16.0000   0.0000   1.0000   0.0000   0.0000   1.0000   0.0000
  1  61.0000  16.0000   4.0000   1.0000   0.0000   0.0000   1.0000   1.0000
Metal_Anodized.vtf
  1  61.0000  16.0000   4.0000   1.0000   0.0000   0.0000   1.0000   1.0000
  1  61.0000 -16.0000   4.0000   1.0000   0.0000   0.0000   0.0000   1.0000
  1  61.0000 -16.0000   0.0000   1.0000   0.0000   0.0000   0.0000   0.0000
Metal_Anodized.vtf
  1  61.0000  16.0000   0.0000   0.0000   1.0000   0.0000   0.0000   0.0000
  1 -61.0000  16.0000   0.0000   0.0000   1.0000   0.0000   1.0000   0.0000
  1 -61.0000  16.0000   4.0000   0.0000   1.0000   0.0000   1.0000   1.0000
Metal_Anodized.vtf
  1 -61.0000  16.0000   4.0000   0.0000   1.0000   0.0000   1.0000   1.0000
  1  61.0000  16.0000   4.0000   0.0000   1.0000   0.0000   0.0000   1.0000
  1  61.0000  16.0000   0.0000   0.0000   1.0000   0.0000   0.0000   0.0000
Metal_Anodized.vtf
  1 -61.0000  16.0000   0.0000  -1.0000   0.0000   0.0000   0.0000   0.0000
  1 -61.0000 -16.0000   0.0000  -1.0000   0.0000   0.0000   1.0000   0.0000
  1 -61.0000 -16.0000   4.0000  -1.0000   0.0000   0.0000   1.0000   1.0000
Metal_Anodized.vtf
  1 -61.0000 -16.0000   4.0000  -1.0000   0.0000   0.0000   1.0000   1.0000
  1 -61.0000  16.0000   4.0000  -1.0000  -0.0000  -0.0000   0.0000   1.0000
  1 -61.0000  16.0000   0.0000  -1.0000   0.0000   0.0000   0.0000   0.0000
Metal_Anodized.vtf
  2 -61.0000  16.0000   0.0000   0.0000  -0.0000   1.0000   1.0000   0.0000
  2 -61.0000 -16.0000  -0.0000   0.0000  -0.0000   1.0000   1.0000   1.0000
  2 -57.0000 -16.0000  -0.0000   0.0000  -0.0000   1.0000   0.0000   1.0000
Metal_Anodized.vtf
  2 -57.0000 -16.0000  -0.0000   0.0000  -0.0000   1.0000   0.0000   1.0000
  2 -57.0000  16.0000   0.0000   0.0000  -0.0000   1.0000   0.0000   0.0000
  2 -61.0000  16.0000   0.0000   0.0000  -0.0000   1.0000   1.0000   0.0000
Metal_Anodized.vtf
  2 -61.0000  16.0000 -38.0000   0.0000   0.0000  -1.0000   0.0000   0.0000
  2 -57.0000  16.0000 -38.0000   0.0000   0.0000  -1.0000   1.0000   0.0000
  2 -57.0000 -16.0000 -38.0000   0.0000   0.0000  -1.0000   1.0000   1.0000
Metal_Anodized.vtf
  2 -57.0000 -16.0000 -38.0000   0.0000   0.0000  -1.0000   1.0000   1.0000
  2 -61.0000 -16.0000 -38.0000   0.0000   0.0000  -1.0000   0.0000   1.0000
  2 -61.0000  16.0000 -38.0000   0.0000   0.0000  -1.0000   0.0000   0.0000
Metal_Anodized.vtf
  2 -61.0000  16.0000   0.0000   0.0000   1.0000   0.0000   0.0000   0.0000
  2 -57.0000  16.0000   0.0000   0.0000   1.0000   0.0000   1.0000   0.0000
  2 -57.0000  16.0000 -38.0000   0.0000   1.0000   0.0000   1.0000   1.0000
Metal_Anodized.vtf
  2 -57.0000  16.0000 -38.0000   0.0000   1.0000   0.0000   1.0000   1.0000
  2 -61.0000  16.0000 -38.0000   0.0000   1.0000   0.0000   0.0000   1.0000
  2 -61.0000  16.0000   0.0000   0.0000   1.0000   0.0000   0.0000   0.0000
Metal_Anodized.vtf
  2 -57.0000  16.0000   0.0000   1.0000   0.0000   0.0000   0.0000   0.0000
  2 -57.0000 -16.0000  -0.0000   1.0000   0.0000   0.0000   1.0000   0.0000
  2 -57.0000 -16.0000 -38.0000   1.0000   0.0000   0.0000   1.0000   1.0000
Metal_Anodized.vtf
  2 -57.0000 -16.0000 -38.0000   1.0000   0.0000   0.0000   1.0000   1.0000
  2 -57.0000  16.0000 -38.0000   1.0000   0.0000   0.0000   0.0000   1.0000
  2 -57.0000  16.0000   0.0000   1.0000   0.0000   0.0000   0.0000   0.0000
Metal_Anodized.vtf
  2 -57.0000 -16.0000  -0.0000   0.0000  -1.0000  -0.0000   0.0000   0.0000
  2 -61.0000 -16.0000  -0.0000   0.0000  -1.0000  -0.0000   1.0000   0.0000
  2 -61.0000 -16.0000 -38.0000   0.0000  -1.0000  -0.0000   1.0000   1.0000
Metal_Anodized.vtf
  2 -61.0000 -16.0000 -38.0000   0.0000  -1.0000  -0.0000   1.0000   1.0000
  2 -57.0000 -16.0000 -38.0000   0.0000  -1.0000  -0.0000   0.0000   1.0000
  2 -57.0000 -16.0000  -0.0000   0.0000  -1.0000  -0.0000   0.0000   0.0000
Metal_Anodized.vtf
  2 -61.0000 -16.0000  -0.0000  -1.0000   0.0000  -0.0000   0.0000   0.0000
  2 -61.0000  16.0000   0.0000  -1.0000   0.0000  -0.0000   1.0000   0.0000
  2 -61.0000  16.0000 -38.0000  -1.0000   0.0000  -0.0000   1.0000   1.0000
Metal_Anodized.vtf
  2 -61.0000  16.0000 -38.0000  -1.0000   0.0000  -0.0000   1.0000   1.0000
  2 -61.0000 -16.0000 -38.0000  -1.0000   0.0000   0.0000   0.0000   1.0000
  2 -61.0000 -16.0000  -0.0000  -1.0000   0.0000  -0.0000   0.0000   0.0000
Metal_Anodized.vtf
  3  57.0000  16.0000   0.0000   0.0000  -0.0000   1.0000   1.0000   0.0000
  3  57.0000 -16.0000  -0.0000   0.0000  -0.0000   1.0000   1.0000   1.0000
  3  61.0000 -16.0000  -0.0000   0.0000  -0.0000   1.0000   0.0000   1.0000
Metal_Anodized.vtf
  3  61.0000 -16.0000  -0.0000   0.0000  -0.0000   1.0000   0.0000   1.0000
  3  61.0000  16.0000   0.0000   0.0000  -0.0000   1.0000   0.0000   0.0000
  3  57.0000  16.0000   0.0000   0.0000  -0.0000   1.0000   1.0000   0.0000
Metal_Anodized.vtf
  3  57.0000  16.0000 -38.0000   0.0000   0.0000  -1.0000   0.0000   0.0000
  3  61.0000  16.0000 -38.0000   0.0000   0.0000  -1.0000   1.0000   0.0000
  3  61.0000 -16.0000 -38.0000   0.0000   0.0000  -1.0000   1.0000   1.0000
Metal_Anodized.vtf
  3  61.0000 -16.0000 -38.0000   0.0000   0.0000  -1.0000   1.0000   1.0000
  3  57.0000 -16.0000 -38.0000   0.0000   0.0000  -1.0000   0.0000   1.0000
  3  57.0000  16.0000 -38.0000   0.0000   0.0000  -1.0000   0.0000   0.0000
Metal_Anodized.vtf
  3  57.0000  16.0000   0.0000   0.0000   1.0000   0.0000   0.0000   0.0000
  3  61.0000  16.0000   0.0000   0.0000   1.0000   0.0000   1.0000   0.0000
  3  61.0000  16.0000 -38.0000   0.0000   1.0000   0.0000   1.0000   1.0000
Metal_Anodized.vtf
  3  61.0000  16.0000 -38.0000   0.0000   1.0000   0.0000   1.0000   1.0000
  3  57.0000  16.0000 -38.0000   0.0000   1.0000   0.0000   0.0000   1.0000
  3  57.0000  16.0000   0.0000   0.0000   1.0000   0.0000   0.0000   0.0000
Metal_Anodized.vtf
  3  61.0000  16.0000   0.0000   1.0000   0.0000   0.0000   0.0000   0.0000
  3  61.0000 -16.0000  -0.0000   1.0000   0.0000   0.0000   1.0000   0.0000
  3  61.0000 -16.0000 -38.0000   1.0000   0.0000   0.0000   1.0000   1.0000
Metal_Anodized.vtf
  3  61.0000 -16.0000 -38.0000   1.0000   0.0000   0.0000   1.0000   1.0000
  3  61.0000  16.0000 -38.0000   1.0000   0.0000   0.0000   0.0000   1.0000
  3  61.0000  16.0000   0.0000   1.0000   0.0000   0.0000   0.0000   0.0000
Metal_Anodized.vtf
  3  61.0000 -16.0000  -0.0000   0.0000  -1.0000  -0.0000   0.0000   0.0000
  3  57.0000 -16.0000  -0.0000   0.0000  -1.0000  -0.0000   1.0000   0.0000
  3  57.0000 -16.0000 -38.0000   0.0000  -1.0000  -0.0000   1.0000   1.0000
Metal_Anodized.vtf
  3  57.0000 -16.0000 -38.0000   0.0000  -1.0000  -0.0000   1.0000   1.0000
  3  61.0000 -16.0000 -38.0000   0.0000  -1.0000  -0.0000   0.0000   1.0000
  3  61.0000 -16.0000  -0.0000   0.0000  -1.0000  -0.0000   0.0000   0.0000
Metal_Anodized.vtf
  3  57.0000 -16.0000  -0.0000  -1.0000   0.0000  -0.0000   0.0000   0.0000
  3  57.0000  16.0000   0.0000  -1.0000   0.0000  -0.0000   1.0000   0.0000
  3  57.0000  16.0000 -38.0000  -1.0000   0.0000  -0.0000   1.0000   1.0000
Metal_Anodized.vtf
  3  57.0000  16.0000 -38.0000  -1.0000   0.0000  -0.0000   1.0000   1.0000
  3  57.0000 -16.0000 -38.0000  -1.0000   0.0000   0.0000   0.0000   1.0000
  3  57.0000 -16.0000  -0.0000  -1.0000   0.0000  -0.0000   0.0000   0.0000
Metal_Anodized.vtf
  4 -61.0000  16.0000 -38.0000   0.0000  -0.0000   1.0000   1.0000   0.0000
  4 -61.0000 -16.0000 -38.0000   0.0000  -0.0000   1.0000   1.0000   1.0000
  4 -45.0000 -16.0000 -38.0000   0.0000  -0.0000   1.0000   0.0000   1.0000
Metal_Anodized.vtf
  4 -45.0000 -16.0000 -38.0000   0.0000  -0.0000   1.0000   0.0000   1.0000
  4 -45.0000  16.0000 -38.0000   0.0000  -0.0000   1.0000   0.0000   0.0000
  4 -61.0000  16.0000 -38.0000   0.0000  -0.0000   1.0000   1.0000   0.0000
Metal_Anodized.vtf
  4 -61.0000  16.0000 -42.0000   0.0000   0.0000  -1.0000   0.0000   0.0000
  4 -45.0000  16.0000 -42.0000   0.0000   0.0000  -1.0000   1.0000   0.0000
  4 -45.0000 -16.0000 -42.0000   0.0000   0.0000  -1.0000   1.0000   1.0000
Metal_Anodized.vtf
  4 -45.0000 -16.0000 -42.0000   0.0000   0.0000  -1.0000   1.0000   1.0000
  4 -61.0000 -16.0000 -42.0000   0.0000   0.0000  -1.0000   0.0000   1.0000
  4 -61.0000  16.0000 -42.0000   0.0000   0.0000  -1.0000   0.0000   0.0000
Metal_Anodized.vtf
  4 -61.0000  16.0000 -38.0000   0.0000   1.0000   0.0000   0.0000   0.0000
  4 -45.0000  16.0000 -38.0000   0.0000   1.0000   0.0000   1.0000   0.0000
  4 -45.0000  16.0000 -42.0000   0.0000   1.0000   0.0000   1.0000   1.0000
Metal_Anodized.vtf
  4 -45.0000  16.0000 -42.0000   0.0000   1.0000   0.0000   1.0000   1.0000
  4 -61.0000  16.0000 -42.0000   0.0000   1.0000   0.0000   0.0000   1.0000
  4 -61.0000  16.0000 -38.0000   0.0000   1.0000   0.0000   0.0000   0.0000
Metal_Anodized.vtf
  4 -45.0000  16.0000 -38.0000   1.0000   0.0000   0.0000   0.0000   0.0000
  4 -45.0000 -16.0000 -38.0000   1.0000   0.0000   0.0000   1.0000   0.0000
  4 -45.0000 -16.0000 -42.0000   1.0000   0.0000   0.0000   1.0000   1.0000
Metal_Anodized.vtf
  4 -45.0000 -16.0000 -42.0000   1.0000   0.0000   0.0000   1.0000   1.0000
  4 -45.0000  16.0000 -42.0000   1.0000   0.0000   0.0000   0.0000   1.0000
  4 -45.0000  16.0000 -38.0000   1.0000   0.0000   0.0000   0.0000   0.0000
Metal_Anodized.vtf
  4 -45.0000 -16.0000 -38.0000   0.0000  -1.0000  -0.0000   0.0000   0.0000
  4 -61.0000 -16.0000 -38.0000   0.0000  -1.0000  -0.0000   1.0000   0.0000
  4 -61.0000 -16.0000 -42.0000   0.0000  -1.0000  -0.0000   1.0000   1.0000
Metal_Anodized.vtf
  4 -61.0000 -16.0000 -42.0000   0.0000  -1.0000  -0.0000   1.0000   1.0000
  4 -45.0000 -16.0000 -42.0000   0.0000  -1.0000  -0.0000   0.0000   1.0000
  4 -45.0000 -16.0000 -38.0000   0.0000  -1.0000  -0.0000   0.0000   0.0000
Metal_Anodized.vtf
  4 -61.0000 -16.0000 -38.0000  -1.0000   0.0000  -0.0000   0.0000   0.0000
  4 -61.0000  16.0000 -38.0000  -1.0000   0.0000  -0.0000   1.0000   0.0000
  4 -61.0000  16.0000 -42.0000  -1.0000   0.0000  -0.0000   1.0000   1.0000
Metal_Anodized.vtf
  4 -61.0000  16.0000 -42.0000  -1.0000   0.0000  -0.0000   1.0000   1.0000
  4 -61.0000 -16.0000 -42.0000  -1.0000   0.0000   0.0000   0.0000   1.0000
  4 -61.0000 -16.0000 -38.0000  -1.0000   0.0000  -0.0000   0.0000   0.0000
Metal_Anodized.vtf
  5  45.0000  16.0000 -38.0000   0.0000  -0.0000   1.0000   1.0000   0.0000
  5  45.0000 -16.0000 -38.0000   0.0000  -0.0000   1.0000   1.0000   1.0000
  5  61.0000 -16.0000 -38.0000   0.0000  -0.0000   1.0000   0.0000   1.0000
Metal_Anodized.vtf
  5  61.0000 -16.0000 -38.0000   0.0000  -0.0000   1.0000   0.0000   1.0000
  5  61.0000  16.0000 -38.0000   0.0000  -0.0000   1.0000   0.0000   0.0000
  5  45.0000  16.0000 -38.0000   0.0000  -0.0000   1.0000   1.0000   0.0000
Metal_Anodized.vtf
  5  45.0000  16.0000 -42.0000   0.0000   0.0000  -1.0000   0.0000   0.0000
  5  61.0000  16.0000 -42.0000   0.0000   0.0000  -1.0000   1.0000   0.0000
  5  61.0000 -16.0000 -42.0000   0.0000   0.0000  -1.0000   1.0000   1.0000
Metal_Anodized.vtf
  5  61.0000 -16.0000 -42.0000   0.0000   0.0000  -1.0000   1.0000   1.0000
  5  45.0000 -16.0000 -42.0000   0.0000   0.0000  -1.0000   0.0000   1.0000
  5  45.0000  16.0000 -42.0000   0.0000   0.0000  -1.0000   0.0000   0.0000
Metal_Anodized.vtf
  5  45.0000  16.0000 -38.0000   0.0000   1.0000   0.0000   0.0000   0.0000
  5  61.0000  16.0000 -38.0000   0.0000   1.0000   0.0000   1.0000   0.0000
  5  61.0000  16.0000 -42.0000   0.0000   1.0000   0.0000   1.0000   1.0000
Metal_Anodized.vtf
  5  61.0000  16.0000 -42.0000   0.0000   1.0000   0.0000   1.0000   1.0000
  5  45.0000  16.0000 -42.0000   0.0000   1.0000   0.0000   0.0000   1.0000
  5  45.0000  16.0000 -38.0000   0.0000   1.0000   0.0000   0.0000   0.0000
Metal_Anodized.vtf
  5  61.0000  16.0000 -38.0000   1.0000   0.0000   0.0000   0.0000   0.0000
  5  61.0000 -16.0000 -38.0000   1.0000   0.0000   0.0000   1.0000   0.0000
  5  61.0000 -16.0000 -42.0000   1.0000   0.0000   0.0000   1.0000   1.0000
Metal_Anodized.vtf
  5  61.0000 -16.0000 -42.0000   1.0000   0.0000   0.0000   1.0000   1.0000
  5  61.0000  16.0000 -42.0000   1.0000   0.0000   0.0000   0.0000   1.0000
  5  61.0000  16.0000 -38.0000   1.0000   0.0000   0.0000   0.0000   0.0000
Metal_Anodized.vtf
  5  61.0000 -16.0000 -38.0000   0.0000  -1.0000  -0.0000   0.0000   0.0000
  5  45.0000 -16.0000 -38.0000   0.0000  -1.0000  -0.0000   1.0000   0.0000
  5  45.0000 -16.0000 -42.0000   0.0000  -1.0000  -0.0000   1.0000   1.0000
Metal_Anodized.vtf
  5  45.0000 -16.0000 -42.0000   0.0000  -1.0000  -0.0000   1.0000   1.0000
  5  61.0000 -16.0000 -42.0000   0.0000  -1.0000  -0.0000   0.0000   1.0000
  5  61.0000 -16.0000 -38.0000   0.0000  -1.0000  -0.0000   0.0000   0.0000
Metal_Anodized.vtf
  5  45.0000 -16.0000 -38.0000  -1.0000   0.0000  -0.0000   0.0000   0.0000
  5  45.0000  16.0000 -38.0000  -1.0000   0.0000  -0.0000   1.0000   0.0000
  5  45.0000  16.0000 -42.0000  -1.0000   0.0000  -0.0000   1.0000   1.0000
Metal_Anodized.vtf
  5  45.0000  16.0000 -42.0000  -1.0000   0.0000  -0.0000   1.0000   1.0000
  5  45.0000 -16.0000 -42.0000  -1.0000   0.0000   0.0000   0.0000   1.0000
  5  45.0000 -16.0000 -38.0000  -1.0000   0.0000  -0.0000   0.0000   0.0000
end
