versioninfo
{
	"editorversion" "400"
	"editorbuild" "5845"
	"mapversion" "230"
	"formatversion" "100"
	"prefab" "1"
}
world
{
	"id" "86137"
	"mapversion" "230"
	"classname" "worldspawn"
	"skyname" "sky_day01_01"
	"maxpropscreenwidth" "-1"
	"detailvbsp" "detail.vbsp"
	"detailmaterial" "detail/detailsprites"
	solid
	{
		"id" "86139"
		side
		{
			"id" "6"
			"plane" "(-1328 544 -12376) (-1216 544 -12376) (-1216 512 -12376)"
			"material" "PHOENIX_STORMS/WOOD"
			"uaxis" "[0 1 0 0] 0.25"
			"vaxis" "[1 0 0 0] 0.25"
			"rotation" "90"
			"lightmapscale" "16"
			"smoothing_groups" "0"
		}
		side
		{
			"id" "5"
			"plane" "(-1328 512 -12384) (-1216 512 -12384) (-1216 544 -12384)"
			"material" "PHOENIX_STORMS/WOOD"
			"uaxis" "[0 1 0 0] 0.25"
			"vaxis" "[1 0 0 0] 0.25"
			"rotation" "90"
			"lightmapscale" "16"
			"smoothing_groups" "0"
		}
		side
		{
			"id" "4"
			"plane" "(-1328 544 -12376) (-1328 512 -12376) (-1328 512 -12384)"
			"material" "PHOENIX_STORMS/WOOD"
			"uaxis" "[0 0 1 0] 0.25"
			"vaxis" "[0 1 0 0] 0.25"
			"rotation" "90"
			"lightmapscale" "16"
			"smoothing_groups" "0"
		}
		side
		{
			"id" "3"
			"plane" "(-1216 544 -12384) (-1216 512 -12384) (-1216 512 -12376)"
			"material" "PHOENIX_STORMS/WOOD"
			"uaxis" "[0 0 1 0] 0.25"
			"vaxis" "[0 1 0 0] 0.25"
			"rotation" "90"
			"lightmapscale" "16"
			"smoothing_groups" "0"
		}
		side
		{
			"id" "2"
			"plane" "(-1216 544 -12376) (-1328 544 -12376) (-1328 544 -12384)"
			"material" "PHOENIX_STORMS/WOOD"
			"uaxis" "[0 0 1 0] 0.25"
			"vaxis" "[1 0 0 0] 0.25"
			"rotation" "90"
			"lightmapscale" "16"
			"smoothing_groups" "0"
		}
		side
		{
			"id" "1"
			"plane" "(-1216 512 -12384) (-1328 512 -12384) (-1328 512 -12376)"
			"material" "PHOENIX_STORMS/WOOD"
			"uaxis" "[0 0 1 0] 0.25"
			"vaxis" "[1 0 0 0] 0.25"
			"rotation" "90"
			"lightmapscale" "16"
			"smoothing_groups" "0"
		}
		editor
		{
			"color" "132 157 0"
			"groupid" "86138"
			"visgroupshown" "1"
			"visgroupautoshown" "1"
		}
	}
	solid
	{
		"id" "86140"
		side
		{
			"id" "14"
			"plane" "(-1314 544 -12360) (-1314 512 -12360) (-1318 512 -12360)"
			"material" "/METAL2"
			"uaxis" "[1 0 0 0] 0.25"
			"vaxis" "[0 -1 0 0] 0.25"
			"rotation" "0"
			"lightmapscale" "16"
			"smoothing_groups" "0"
		}
		side
		{
			"id" "13"
			"plane" "(-1320 512 -12376) (-1312 512 -12376) (-1312 544 -12376)"
			"material" "/METAL2"
			"uaxis" "[1 0 0 0] 0.25"
			"vaxis" "[0 -1 0 0] 0.25"
			"rotation" "0"
			"lightmapscale" "16"
			"smoothing_groups" "0"
		}
		side
		{
			"id" "12"
			"plane" "(-1320 544 -12376) (-1320 544 -12362) (-1320 512 -12362)"
			"material" "/METAL2"
			"uaxis" "[0 1 0 0] 0.25"
			"vaxis" "[0 0 -1 0] 0.25"
			"rotation" "0"
			"lightmapscale" "16"
			"smoothing_groups" "0"
		}
		side
		{
			"id" "11"
			"plane" "(-1312 512 -12376) (-1312 512 -12362) (-1312 544 -12362)"
			"material" "/METAL2"
			"uaxis" "[0 1 0 0] 0.25"
			"vaxis" "[0 0 -1 0] 0.25"
			"rotation" "0"
			"lightmapscale" "16"
			"smoothing_groups" "0"
		}
		side
		{
			"id" "10"
			"plane" "(-1312 544 -12376) (-1312 544 -12362) (-1314 544 -12360)"
			"material" "/METAL2"
			"uaxis" "[1 0 0 0] 0.25"
			"vaxis" "[0 0 -1 0] 0.25"
			"rotation" "0"
			"lightmapscale" "16"
			"smoothing_groups" "0"
		}
		side
		{
			"id" "9"
			"plane" "(-1320 512 -12376) (-1320 512 -12362) (-1318 512 -12360)"
			"material" "/METAL2"
			"uaxis" "[1 0 0 0] 0.25"
			"vaxis" "[0 0 -1 0] 0.25"
			"rotation" "0"
			"lightmapscale" "16"
			"smoothing_groups" "0"
		}
		side
		{
			"id" "8"
			"plane" "(-1320 544 -12362) (-1318 544 -12360) (-1318 512 -12360)"
			"material" "/METAL2"
			"uaxis" "[1 0 0 0] 0.25"
			"vaxis" "[0 -1 0 0] 0.25"
			"rotation" "0"
			"lightmapscale" "16"
			"smoothing_groups" "0"
		}
		side
		{
			"id" "7"
			"plane" "(-1312 512 -12362) (-1314 512 -12360) (-1314 544 -12360)"
			"material" "/METAL2"
			"uaxis" "[1 0 0 0] 0.25"
			"vaxis" "[0 -1 0 0] 0.25"
			"rotation" "0"
			"lightmapscale" "16"
			"smoothing_groups" "0"
		}
		editor
		{
			"color" "132 157 0"
			"groupid" "86138"
			"visgroupshown" "1"
			"visgroupautoshown" "1"
		}
	}
	solid
	{
		"id" "86141"
		side
		{
			"id" "22"
			"plane" "(-1226 544 -12360) (-1226 512 -12360) (-1230 512 -12360)"
			"material" "/METAL2"
			"uaxis" "[1 0 0 0] 0.25"
			"vaxis" "[0 -1 0 0] 0.25"
			"rotation" "0"
			"lightmapscale" "16"
			"smoothing_groups" "0"
		}
		side
		{
			"id" "21"
			"plane" "(-1232 512 -12376) (-1224 512 -12376) (-1224 544 -12376)"
			"material" "/METAL2"
			"uaxis" "[1 0 0 0] 0.25"
			"vaxis" "[0 -1 0 0] 0.25"
			"rotation" "0"
			"lightmapscale" "16"
			"smoothing_groups" "0"
		}
		side
		{
			"id" "20"
			"plane" "(-1232 544 -12376) (-1232 544 -12362) (-1232 512 -12362)"
			"material" "/METAL2"
			"uaxis" "[0 1 0 0] 0.25"
			"vaxis" "[0 0 -1 0] 0.25"
			"rotation" "0"
			"lightmapscale" "16"
			"smoothing_groups" "0"
		}
		side
		{
			"id" "19"
			"plane" "(-1224 512 -12376) (-1224 512 -12362) (-1224 544 -12362)"
			"material" "/METAL2"
			"uaxis" "[0 1 0 0] 0.25"
			"vaxis" "[0 0 -1 0] 0.25"
			"rotation" "0"
			"lightmapscale" "16"
			"smoothing_groups" "0"
		}
		side
		{
			"id" "18"
			"plane" "(-1224 544 -12376) (-1224 544 -12362) (-1226 544 -12360)"
			"material" "/METAL2"
			"uaxis" "[1 0 0 0] 0.25"
			"vaxis" "[0 0 -1 0] 0.25"
			"rotation" "0"
			"lightmapscale" "16"
			"smoothing_groups" "0"
		}
		side
		{
			"id" "17"
			"plane" "(-1232 512 -12376) (-1232 512 -12362) (-1230 512 -12360)"
			"material" "/METAL2"
			"uaxis" "[1 0 0 0] 0.25"
			"vaxis" "[0 0 -1 0] 0.25"
			"rotation" "0"
			"lightmapscale" "16"
			"smoothing_groups" "0"
		}
		side
		{
			"id" "16"
			"plane" "(-1232 544 -12362) (-1230 544 -12360) (-1230 512 -12360)"
			"material" "/METAL2"
			"uaxis" "[1 0 0 0] 0.25"
			"vaxis" "[0 -1 0 0] 0.25"
			"rotation" "0"
			"lightmapscale" "16"
			"smoothing_groups" "0"
		}
		side
		{
			"id" "15"
			"plane" "(-1224 512 -12362) (-1226 512 -12360) (-1226 544 -12360)"
			"material" "/METAL2"
			"uaxis" "[1 0 0 0] 0.25"
			"vaxis" "[0 -1 0 0] 0.25"
			"rotation" "0"
			"lightmapscale" "16"
			"smoothing_groups" "0"
		}
		editor
		{
			"color" "132 157 0"
			"groupid" "86138"
			"visgroupshown" "1"
			"visgroupautoshown" "1"
		}
	}
	group
	{
		"id" "86138"
		editor
		{
			"color" "132 157 0"
			"visgroupshown" "1"
			"visgroupautoshown" "1"
		}
	}
}
