[Info]
Type:AdvDupe File
Creator:"briman0094"
Date:09/12/13
Description:"none"
Entities:3
Constraints:6
[More Information]
FileVersion:0.84
AdvDupeVersion:1.85
AdvDupeToolVersion:1.9
AdvDupeSharedVersion:1.72
SerialiserVersion:1.4
WireVersion:Not Installed
Time:01:53 PM
Head:128
HoldAngle:0,-23.0559,0
HoldPos:-0.123535,-61.0179,-512.401
StartPos:-1148.75,1605.78,-12800
[Save]
Entities:0x2febfd28{N:0=T:0x2febfd50;}0x3dc0d830{Y:15=B:t;Y:16=S:"ice";}0x2fb50be8{Y:17=T:0x2fb50c10;}0x3dc0d7b8{N:0=T:0x3dc0d808;}0x2febfd50{Y:2=A:0.00107434,90,0.000111727;Y:3=A:0.000880916,90,6.2004e-005;Y:4=B:t;Y:5=V:61.245,-207.366,496.372;}0x2fb50cc8{Y:12=T:0x2fb50d50;Y:13=N:0;}0x3046bac0{Y:2=A:0.0346949,90.0011,0.00475706;Y:3=A:-6.38132e-009,89.9975,360;Y:4=B:t;Y:5=V:60.8269,198.283,496.468;}0x37fb0058{Y:1=N:0;Y:6=T:0x303a47a0;Y:3=A:-0.00039646,-89.9413,-0.00137329;Y:8=Y:7;Y:5=V:61.0303,-0.0574951,512.399;Y:10=Y:9;Y:14=T:0x37fb0100;}0x2fb509c0{Y:1=N:0;Y:5=V:61.245,-207.366,496.372;Y:6=T:0x2febfd28;Y:3=A:0.000880916,90,6.2004e-005;Y:8=Y:7;Y:18=T:0x2fb50b98;Y:10=Y:19;Y:14=T:0x2fb50cc8;}0x373bac88{Y:11=N:1000;}H0x373baaa0{N:128=T:0x37fb0058;N:127=T:0x3dc0d710;N:129=T:0x2fb509c0;}0x2fb50d50{Y:11=N:100;}0x2fb50c10{Y:15=B:t;Y:16=Y:20;}0x2fb50b98{N:0=T:0x2fb50be8;}0x3dc02168{N:0=T:0x3046bac0;}0x3dc0d710{Y:1=N:0;Y:5=V:60.8269,198.283,496.468;Y:6=T:0x3dc02168;Y:3=A:-6.38132e-009,89.9975,0;Y:8=Y:7;Y:18=T:0x3dc0d7b8;Y:10=Y:19;Y:14=T:0x3dc0d8e8;}0x303a47a0{N:0=T:0x303a4e80;}0x3dc0d970{Y:11=N:100;}0x303a4e80{Y:2=A:0.00530426,-89.6794,1.00179e-005;Y:3=A:-0.00039646,-89.9413,359.999;Y:4=B:t;Y:5=V:61.0303,-0.0574951,512.399;}0x3dc0d8e8{Y:12=T:0x3dc0d970;Y:13=N:0;}0x37fb0100{Y:12=T:0x373bac88;Y:13=N:0;}0x3dc0d808{Y:17=T:0x3dc0d830;}
Constraints:0x36e4be58{Y:29=N:0;Y:30=V:-5.94035e-005,58.9668,4.03118;Y:31=N:129;}0x3038ac18{T:0x3038ac90;T:0x3038ad88;}0x3038ad88{Y:29=N:0;Y:30=V:-198.183,-60.0313,2.05462;Y:31=N:128;}0x3dc02358{Y:29=N:0;Y:30=V:-198.185,8.86296e-005,-0.0310416;Y:31=N:128;}H0x30489278{T:0x3038ae68;T:0x2f55b900;T:0x3dc01fe0;T:0x3038aa68;T:0x2f55b820;T:0x2fb50f08;}0x3038ae90{T:0x3038af08;T:0x2f55b758;}0x2fb50f08{Y:21=V:-5.94035e-005,58.9668,4.03118;Y:22=N:2;Y:24=Y:23;Y:25=N:500;Y:26=N:1;Y:27=N:50000;Y:28=V:207.419,-60.0313,2.05474;Y:32=T:0x36e4bde0;Y:33=N:14.095180955845;Y:34=N:0;Y:36=Y:35;}0x3038ac90{Y:29=N:0;Y:30=V:0.00305415,58.9667,4.03125;Y:31=N:127;}0x3dc02208{Y:29=N:0;Y:30=V:3.85869e-006,3.75082e-006,4.03125;Y:31=N:127;}0x2f55bc58{Y:29=N:0;Y:30=V:-6.32491e-006,4.01443e-006,4.03125;Y:31=N:129;}0x2f55b820{Y:21=V:-6.45565e-005,-58.9667,4.03132;Y:22=N:2;Y:24=Y:23;Y:25=N:500;Y:26=N:1;Y:27=N:50000;Y:28=V:207.415,60.0313,2.05176;Y:32=T:0x36e4baf0;Y:33=N:14.088027827035;Y:34=N:0;Y:36=Y:35;}0x3dc02190{T:0x3dc02208;T:0x3dc02358;}0x2f55b900{Y:21=V:-6.32491e-006,4.01443e-006,4.03125;Y:37=N:-10;Y:38=N:10;Y:39=N:15;Y:28=V:207.417,0.00250376,-0.0315256;Y:40=N:1;Y:41=N:0;Y:42=N:0;Y:24=Y:43;Y:32=T:0x2f55bbe0;Y:44=N:0;Y:45=N:-180;Y:46=N:0;Y:47=N:-15;Y:48=N:0;Y:49=N:180;Y:50=N:0;}0x36e4bde0{T:0x36e4be58;T:0x36e4bf88;}0x2f55bbe0{T:0x2f55bc58;T:0x2f55bd50;}0x36e4bb68{Y:29=N:0;Y:30=V:-6.45565e-005,-58.9667,4.03132;Y:31=N:129;}0x3038aa68{Y:21=V:0.00305415,58.9667,4.03125;Y:22=N:2;Y:24=Y:23;Y:25=N:500;Y:26=N:1;Y:27=N:50000;Y:28=V:-198.183,-60.0313,2.05462;Y:32=T:0x3038ac18;Y:33=N:13.997404059001;Y:34=N:0;Y:36=Y:35;}0x36e4baf0{T:0x36e4bb68;T:0x2f55b848;}0x3dc01fe0{Y:21=V:3.85869e-006,3.75082e-006,4.03125;Y:37=N:-10;Y:38=N:10;Y:39=N:15;Y:28=V:-198.185,8.86296e-005,-0.0310416;Y:40=N:1;Y:41=N:0;Y:42=N:0;Y:24=Y:43;Y:32=T:0x3dc02190;Y:44=N:0;Y:45=N:-180;Y:46=N:0;Y:47=N:-15;Y:48=N:0;Y:49=N:180;Y:50=N:0;}0x2f55bd50{Y:29=N:0;Y:30=V:207.417,0.00250376,-0.0315256;Y:31=N:128;}0x36e4bf88{Y:29=N:0;Y:30=V:207.419,-60.0313,2.05474;Y:31=N:128;}0x3038af08{Y:29=N:0;Y:30=V:-0.00293208,-58.9667,4.03125;Y:31=N:127;}0x2f55b758{Y:29=N:0;Y:30=V:-198.187,60.0312,2.06336;Y:31=N:128;}0x3038ae68{Y:21=V:-0.00293208,-58.9667,4.03125;Y:22=N:2;Y:24=Y:23;Y:25=N:500;Y:26=N:1;Y:27=N:50000;Y:28=V:-198.187,60.0312,2.06336;Y:32=T:0x3038ae90;Y:33=N:14.001774535475;Y:34=N:0;Y:36=Y:35;}0x2f55b848{Y:29=N:0;Y:30=V:207.415,60.0313,2.05176;Y:31=N:128;}
[Dict]
1:"Skin"
2:"Angles"
3:"LocalAngle"
4:"Frozen"
5:"LocalPos"
6:"PhysicsObjects"
7:"prop_physics"
8:"Class"
9:"models/trains/apm2.mdl"
10:"Model"
11:"Mass"
12:"mass"
13:"CollisionGroupMod"
14:"EntityMods"
15:"GravityToggle"
16:"Material"
17:"physprops"
18:"BoneMods"
19:"models/trains/monorail_bogie.mdl"
20:"gmod_ice"
21:"LPos1"
22:"width"
23:"Elastic"
24:"Type"
25:"damping"
26:"rdamping"
27:"constant"
28:"LPos2"
29:"Bone"
30:"LPos"
31:"Index"
32:"Entity"
33:"length"
34:"stretchonly"
35:"cable/cable2"
36:"material"
37:"ymin"
38:"ymax"
39:"xmax"
40:"nocollide"
41:"onlyrotation"
42:"xfric"
43:"AdvBallsocket"
44:"forcelimit"
45:"zmin"
46:"zfric"
47:"xmin"
48:"torquelimit"
49:"zmax"
50:"yfric"
Saved:131