$modelname "props_phx/trains/track_10degree_up.mdl"
$model "Body" "rail_10_up.smd"
$cdmaterials "phoenix_storms\trains\"
$hboxset "default"
$surfaceprop "solidmetal"
$illumposition -0.243 -0.000 7.297
$sequence idle "rail_10_up.smd" fps 30.00
$collisionmodel "rail_10_up.smd"
{
	$concave
	$mass 32.0
	$inertia 1.00
	$damping 0.00
	$rotdamping 0.00
}
